{
    "$schema":"//srv-media/data/BERTRAND-ICN/schema.json",
    
    "data":[
        
        
{        "age":17,
        "sexe":"H",
        "Q1":4,
        "Q2":"NON",
        "Q3":"Apple",
        "Q4":"Tactile",
        "Q5":"OUI",
        "Q6":"Jeux",
        "Q7":"Soir",
        "Q8": "Twitter",
        "Q9":"Ordinateur",
        "Q10":"Plus",
        "Q11":"Faire comme les autres",
        "Q12":11

},
{
        "age":18,
        "sexe":"H",
        "Q1":3,
        "Q2":"NON",
        "Q3":"Samsung",
        "Q4":"Tactile",
        "Q5":"OUI",
        "Q6":"Réseaux",
        "Q7":"Après-midi",
        "Q8": "Snapchat",
        "Q9":"Téléphone",
        "Q10":"5",
        "Q11":"Parce que j'avais envie",
        "Q12":12
        
    
},
{
        "age":15,
        "sexe":"F",
        "Q1":4,
        "Q2":"NON",
        "Q3":"Apple",
        "Q4":"Tactile",
        "Q5":"NON",
        "Q6":"Réseaux",
        "Q7":"Après-midi",
        "Q8": "Instagram",
        "Q9":"Téléphone",
        "Q10":"1",
        "Q11":"Pour faire comme les autres",
        "Q12":10
        
    
},
{
        "age":17,
        "sexe":"F",
        "Q1":1,
        "Q2":"NON",
        "Q3":"Apple",
        "Q4":"Tactile",
        "Q5":"OUI",
        "Q6":"Réseaux",
        "Q7":"Soir",
        "Q8": "Facebook",
        "Q9":"Tablette",
        "Q10":"3",
        "Q11":"Parce que j'avais envie",
        "Q12":10
        
},
{
        "age":17,
        "sexe":"F",
        "Q1":2,
        "Q2":"NON",
        "Q3":"Apple",
        "Q4":"Tactile",
        "Q5":"OUI",
        "Q6":"Réseaux",
        "Q7":"Soir",
        "Q8": "Instagram",
        "Q9":"Téléphone",
        "Q10":"1",
        "Q11":"Pour partagez avec mes amis",
        "Q12":12
        
},
{
        "age":16,
        "sexe":"H",
        "Q1":3,
        "Q2":"OUI",
        "Q3":"Apple",
        "Q4":"Tactile",
        "Q5":"OUI",
        "Q6":"Réseaux",
        "Q7":"Soir",
        "Q8": "Facebook",
        "Q9":"Téléphone",
        "Q10":"3",
        "Q11":"Pour faire des rencontres",
        "Q12":12
        
},
{
        "age":18,
        "sexe":"H",
        "Q1":2,
        "Q2":"OUI",
        "Q3":"Apple",
        "Q4":"Tactile",
        "Q5":"OUI",
        "Q6":"Jeux",
        "Q7":"Matin",
        "Q8": "Dailymotion",
        "Q9":"Ordinateur",
        "Q10":"2",
        "Q11":"Parce que j'avais envie",
        "Q12":9
        
},
{
        "age":18,
        "sexe":"F",
        "Q1":4,
        "Q2":"NON",
        "Q3":"Apple",
        "Q4":"Tactile",
        "Q5":"NON",
        "Q6":"Réseaux",
        "Q7":"Soir",
        "Q8": "Youtube",
        "Q9":"Tablette",
        "Q10":"4",
        "Q11":"Pour me tenir au courant",
        "Q12":11
        
},
{
        "age":14,
        "sexe":"F",
        "Q1":1,
        "Q2":"NON",
        "Q3":"Apple",
        "Q4":"Tactile",
        "Q5":"OUI",
        "Q6":"Réseaux",
        "Q7":"Après-midi",
        "Q8": "Kiwi",
        "Q9":"Téléphone",
        "Q10":"1",
        "Q11":"Je ne sais pas",
        "Q12":14
        
},
{
        "age":18,
        "sexe":"F",
        "Q1":3,
        "Q2":"NON",
        "Q3":"Huawei",
        "Q4":"Clavier",
        "Q5":"OUI",
        "Q6":"Jeux",
        "Q7":"Après-midi",
        "Q8": "Twitter",
        "Q9":"Ordinateur",
        "Q10":"2",
        "Q11":"Pour parler avec mes amis",
        "Q12":13
        
},
{
        "age":14,
        "sexe":"F",
        "Q1":4,
        "Q2":"NON",
        "Q3":"Samsung",
        "Q4":"Tactile",
        "Q5":"OUI",
        "Q6":"Réseaux",
        "Q7":"Soir",
        "Q8": "Aucun",
        "Q9":"Téléphone",
        "Q10":"Plus",
        "Q11":"Pourquoi pas",
        "Q12":9
        
},
{
        "age":16,
        "sexe":"H",
        "Q1":3,
        "Q2":"NON",
        "Q3":"Samsung",
        "Q4":"Tactile",
        "Q5":"OUI",
        "Q6":"Réseaux",
        "Q7":"Soir",
        "Q8": "Instagram",
        "Q9":"Téléphone",
        "Q10":"3",
        "Q11":"Pour parler avec mes amis",
        "Q12":11
        
},
{
        "age":15,
        "sexe":"F",
        "Q1":3,
        "Q2":"OUI",
        "Q3":"Samsung",
        "Q4":"Tactile",
        "Q5":"OUI",
        "Q6":"Réseaux",
        "Q7":"Soir",
        "Q8": "Youtube",
        "Q9":"Téléphone",
        "Q10":"3",
        "Q11":"Pour parler avec mes amis",
        "Q12":12
        
},
{
        "age":17,
        "sexe":"F",
        "Q1":4,
        "Q2":"NON",
        "Q3":"Apple",
        "Q4":"Tactile",
        "Q5":"OUI",
        "Q6":"Réseaux",
        "Q7":"Soir",
        "Q8": "Messenger",
        "Q9":"Téléphone",
        "Q10":"3",
        "Q11":"Je ne sais pas",
        "Q12":13
        
} 
]
}