{
     "$schema":"//srv-media/data/BERTRAND-ICN/schema.json",
     
     "data":[

{ "age":17,
"sexe":"F",
"Q1":3,
"Q2":"NON",
"Q3":"Apple",
"Q4":"Tactile",
"Q5":"OUI",
"Q6":"Réseaux",
"Q7":"Soir",
"Q8":"Facebook",
"Q9":"Téléphone",
"Q10":"Plus",
"Q11":"Parce que mes amies l'on fait",
"Q12":12
},
{"age":14,
"sexe":"F",
"Q1":4,
"Q2":"OUI",
"Q3":"Huawei",
"Q4":"Tactile",
"Q5":"OUI",
"Q6":"Jeux",
"Q7":"Soir",
"Q8":"Instagram",
"Q9":"Ordinateur",
"Q10":"5",
"Q11":"Pour voir ce que c'était",
"Q12":13
},
{"age":15,
"sexe":"F",
"Q1":2,
"Q2":"OUI",
"Q3":"Apple",
"Q4":"Tactile",
"Q5":"OUI",
"Q6":"Réseaux",
"Q7":"Soir",
"Q8":"Snapchat",
"Q9":"Téléphone",
"Q10":"3",
"Q11":"Pour parler avec des potes et me divertir",
"Q12":12
},
{"age":16,
"sexe":"F",
"Q1":4,
"Q2":"OUI",
"Q3":"Apple",
"Q4":"Tactile",
"Q5":"NON",
"Q6":"Réseaux",
"Q7":"Soir",
"Q8":"Snapchat",
"Q9":"Téléphone",
"Q10":"Plus",
"Q11":"Pour communiquer avec le monde extérieur",
"Q12":12
},
{"age":16,
"sexe":"H",
"Q1":2,
"Q2":"OUI",
"Q3":"Sony",
"Q4":"Tactile",
"Q5":"OUI",
"Q6":"Réseaux",
"Q7":"Soir",
"Q8":"Facebook",
"Q9":"Téléphone",
"Q10":"4",
"Q11":"Pour faire comme les autres",
"Q12":13
},
{"age":16,
"sexe":"F",
"Q1":1,
"Q2":"NON",
"Q3":"Huawei",
"Q4":"Tactile",
"Q5":"NON",
"Q6":"Réseaux",
"Q7":"Après-midi",
"Q8":"Youtube",
"Q9":"Téléphone",
"Q10":"4",
"Q11":"Pour découvrir ces réseaux sociaux",
"Q12":13
},
{"age":14,
"sexe":"F",
"Q1":1,
"Q2":"NON",
"Q3":"Wiko",
"Q4":"Tactile",
"Q5":"OUI",
"Q6":"Réseaux",
"Q7":"Soir",
"Q8":"Facebook",
"Q9":"Ordinateur",
"Q10":"3",
"Q11":"Pour discuter avec mes amies et s'amuser",
"Q12":12
},
{"age":15,
"sexe":"H",
"Q1":4,
"Q2":"NON",
"Q3":"Apple",
"Q4":"Tactile",
"Q5":"NON",
"Q6":"Réseaux",
"Q7":"Soir",
"Q8":"Messenger",
"Q9":"Téléphone",
"Q10":"4",
"Q11":"Pour pouvoir parler avec des gens",
"Q12":11
},
{"age":17,
"sexe":"H",
"Q1":3,
"Q2":"OUI",
"Q3":"Apple",
"Q4":"Tactile",
"Q5":"OUI",
"Q6":"Réseaux",
"Q7":"Soir",
"Q8":"Aucun",
"Q9":"Téléphone",
"Q10":"2",
"Q11":"Pour faire comme les autres",
"Q12":8
},
{"age":15,
"sexe":"F",
"Q1":3,
"Q2":"NON",
"Q3":"Apple",
"Q4":"Tactile",
"Q5":"NON",
"Q6":"Réseaux",
"Q7":"Soir",
"Q8":"Snapchat",
"Q9":"Téléphone",
"Q10":"3",
"Q11":"Pour parler avec des personnes",
"Q12":11
},
{"age":16,
"sexe":"H",
"Q1":3,
"Q2":"OUI",
"Q3":"Apple",
"Q4":"Tactile",
"Q5":"OUI",
"Q6":"Réseaux",
"Q7":"Soir",
"Q8":"Snapchat",
"Q9":"Téléphone",
"Q10":"4",
"Q11":"Parler avec mes amis",
"Q12":11
},
{"age":15,
"sexe":"H",
"Q1":4,
"Q2":"NON",
"Q3":"Apple",
"Q4":"Tactile",
"Q5":"OUI",
"Q6":"Réseaux",
"Q7":"Soir",
"Q8":"Facebook",
"Q9":"Aucun",
"Q10":"4",
"Q11":"Pour discuter avec mes amis",
"Q12":10
}



]
}