{
    "$schema":"//srv-media/data/BERTRAND-ICN/schema.json",
    
    "data":[
    
    
{"age":15,
    "sexe":"F",
    
    "Q1":4,
    "Q2":"NON",
    "Q3":"Apple",
    "Q4":"Tactile",
    "Q5":"OUI",
    "Q6":"Réseaux",
    "Q7":"Soir",
    "Q8":"Snapchat",
    "Q9":"Téléphone",
    "Q10":"3",
    "Q11":"Partager des moments avec mon entourage que je ne vois pas souvent",
    "Q12":13
},

{
    "age":15,
    "sexe":"H",
    
    "Q1":3,
    "Q2":"OUI",
    "Q3":"LG",
    "Q4":"Tactile",
    "Q5":"OUI",
    "Q6":"Jeux",
    "Q7":"Soir",
    "Q8":"Clash royale",
    "Q9":"Ordinateur",
    "Q10":"1",
    "Q11":"Pour parler à mes amis",
    "Q12":12
},

{
  "age":16,
    "sexe":"H",
    
    "Q1":4,
    "Q2":"OUI",
    "Q3":"Apple",
    "Q4":"Tactile",
    "Q5":"OUI",
    "Q6":"Jeux",
    "Q7":"Soir",
    "Q8":"L'équipe",
    "Q9":"Téléphone",
    "Q10":"1",
    "Q11":"Pour discuter avec mes amis ou ma famille à distance",
    "Q12":14
},
  
  
{
    "age":16,
    "sexe":"F",
    
    "Q1":3,
    "Q2":"NON",
    "Q3":"Apple",
    "Q4":"Tactile",
    "Q5":"OUI",
    "Q6":"Réseaux",
    "Q7":"Soir",
    "Q8":"Instagram",
    "Q9":"Téléphone",
    "Q10":"3",
    "Q11":"Partager avec mes apmis et ma famille",
    "Q12":10
},

{
    "age":17,
    "sexe":"F",
    
    "Q1":4,
    "Q2":"OUI",
    "Q3":"HTC",
    "Q4":"Tactile",
    "Q5":"OUI",
    "Q6":"Jeux",
    "Q7":"Après-midi",
    "Q8":"Facebook",
    "Q9":"Ordinateur",
    "Q10":"4",
    "Q11":"Pour envoyer des photos à poil",
    "Q12":9
},

{
    "age":14,
    "sexe":"H",
    
    "Q1":2,
    "Q2":"OUI",
    "Q3":"Apple",
    "Q4":"Tactile",
    "Q5":"OUI",
    "Q6":"Jeux",
    "Q7":"Soir",
    "Q8":"Musique",
    "Q9":"Téléphone",
    "Q10":"2",
    "Q11":"Par ennuie",
    "Q12":11
},

{
    "age":17,
    "sexe":"H",
    
    "Q1":3,
    "Q2":"NON",
    "Q3":"Apple",
    "Q4":"Tactile",
    "Q5":"OUI",
    "Q6":"Réseaux",
    "Q7":"Soir",
    "Q8":"Snapchat",
    "Q9":"Téléphone",
    "Q10":"3",
    "Q11":"Pour ____es o___uie",
    "Q12":12
},

{
    "age":18,
    "sexe":"F",
    
    "Q1":4,
    "Q2":"OUI",
    "Q3":"LG",
    "Q4":"Clavier",
    "Q5":"NON",
    "Q6":"Réseaux",
    "Q7":"Matin",
    "Q8":"Snapchat",
    "Q9":"Téléphone",
    "Q10":"3",
    "Q11":"Je ne sais pas",
    "Q12":9
},

{
    "age":17,
    "sexe":"H",
    
    "Q1":3,
    "Q2":"OUI",
    "Q3":"LG",
    "Q4":"Tactile",
    "Q5":"OUI",
    "Q6":"Réseaux",
    "Q7":"Matin",
    "Q8":"Facebook",
    "Q9":"Téléphone",
    "Q10":"2",
    "Q11":"Pour mes amis",
    "Q12":12
},

{
    "age":16,
    "sexe":"F",
    
    "Q1":3,
    "Q2":"OUI",
    "Q3":"Samsung",
    "Q4":"Tactile",
    "Q5":"OUI",
    "Q6":"Réseaux",
    "Q7":"Soir",
    "Q8":"Instagram",
    "Q9":"Téléphone",
    "Q10":"3",
    "Q11":"Pour faire pareil",
    "Q12":13
},

{
    "age":16,
    "sexe":"F",
    
    "Q1":4,
    "Q2":"NON",
    "Q3":"Apple",
    "Q4":"Tactile",
    "Q5":"OUI",
    "Q6":"Réseaux",
    "Q7":"Soir",
    "Q8":"Facebook",
    "Q9":"Téléphone",
    "Q10":"5",
    "Q11":"Pour parler",
    "Q12":13
}



]
}












