{
    "$schema":"//srv-media/data/BERTRAND-ICN/schema.json",
    
    "data":[
        
        
{"age":15,
    "sexe":"H",
    "Q1":3,
    "Q2":"OUI",
    "Q3":"LG",
    "Q4":"Tactile",
    "Q5":"OUI",
    "Q6":"Jeux",
    "Q7":"Soir",
    "Q8":"Youtube",
    "Q9":"Ordinateur",
    "Q10":"3",
    "Q11":"Envie de faire comme les autres",
    "Q12":12
},

{
    "age":15,
    "sexe":"F",
    "Q1":3,
    "Q2":"NON",
    "Q3":"Apple",
    "Q4":"Tactile",
    "Q5":"OUI",
    "Q6":"Réseaux",
    "Q7":"Matin",
    "Q8":"Twitter",
    "Q9":"Téléphone",
    "Q10":"Plus",
    "Q11":"Pour mes amis",
    "Q12":13
},

{
    "age":15,
    "sexe":"H",
    "Q1":2,
    "Q2":"OUI",
    "Q3":"Samsung",
    "Q4":"Tactile",
    "Q5":"OUI",
    "Q6":"Réseaux",
    "Q7":"Soir",
    "Q8":"Pornhub",
    "Q9":"Téléphone",
    "Q10":"2",
    "Q11":"C'est cool",
    "Q12":13
},

{
    "age":15,
    "sexe":"H",
    "Q1":"4",
    "Q2":"NON",
    "Q3":"Samsung",
    "Q4":"Tactile",
    "Q5":"NON",
    "Q6":"Jeux",
    "Q7":"Soir",
    "Q8":"Snapchat",
    "Q9":"Ordinateur",
    "Q10":"2",
    "Q11":"Pour parler avec mes amis",
    "Q12":10
},

{
    "age":16,
    "sexe":"H",
    "Q1":"2",
    "Q2":"OUI",
    "Q3":"Apple",
    "Q4":"Tactile",
    "Q5":"OUI",
    "Q6":"Reseaux",
    "Q7":"Soir",
    "Q8":"Snapchat",
    "Q9":"Tablette",
    "Q10":"4",
    "Q11":"Pour parler avec mes amis",
    "Q12":14
},
{
    "age":15,
    "sexe":"F",
    "Q1":"2",
    "Q2":"OUI",
    "Q3":"Wiko",
    "Q4":"Tactile",
    "Q5":"OUI",
    "Q6":"Reseaux",
    "Q7":"Soir",
    "Q8":"Facebook",
    "Q9":"Téléphone",
    "Q10":"5",
    "Q11":"Pour parler avec mes amis",
    "Q12":12
},
{
    "age":15,
    "sexe":"F",
    "Q1":"2",
    "Q2":"OUI",
    "Q3":"Wiko",
    "Q4":"Tactile",
    "Q5":"OUI",
    "Q6":"Reseaux",
    "Q7":"Soir",
    "Q8":"Facebook",
    "Q9":"Téléphone",
    "Q10":"5",
    "Q11":"Pour parler avec mes amis",
    "Q12":12
},
{
    "age":15,
    "sexe":"H",
    "Q1":"2",
    "Q2":"OUI",
    "Q3":"Apple",
    "Q4":"Tactile",
    "Q5":"OUI",
    "Q6":"Reseaux",
    "Q7":"Soir",
    "Q8":"Snapchat",
    "Q9":"Téléphone",
    "Q10":"3",
    "Q11":"Car c'est bien",
    "Q12":11
},
{
    "age":15,
    "sexe":"H",
    "Q1":"2",
    "Q2":"OUI",
    "Q3":"Apple",
    "Q4":"Tactile",
    "Q5":"OUI",
    "Q6":"Reseaux",
    "Q7":"Soir",
    "Q8":"Snapchat",
    "Q9":"Téléphone",
    "Q10":"3",
    "Q11":"Car c'est bien",
    "Q12":11
},
{
    "age":15,
    "sexe":"F",
    "Q1":"4",
    "Q2":"NON",
    "Q3":"Apple",
    "Q4":"Tactile",
    "Q5":"OUI",
    "Q6":"Reseaux",
    "Q7":"Matin",
    "Q8":"Facebook",
    "Q9":"Ordinateur",
    "Q10":"2",
    "Q11":"Pour être connecté",
    "Q12":12
},
{
    "age":15,
    "sexe":"M",
    "Q1":"3",
    "Q2":"NON",
    "Q3":"Apple",
    "Q4":"Tactile",
    "Q5":"OUI",
    "Q6":"Jeux",
    "Q7":"Soir",
    "Q8":"Youtube",
    "Q9":"Téléphone",
    "Q10":"2",
    "Q11":"Pour voir ce que font les autres",
    "Q12":10
},
{
    "age":15,
    "sexe":"M",
    "Q1":"4",
    "Q2":"NON",
    "Q3":"Apple",
    "Q4":"Tactile",
    "Q5":"NON",
    "Q6":"Resaux",
    "Q7":"Soir",
    "Q8":"Facebook",
    "Q9":"Téléphone",
    "Q10":"4",
    "Q11":"Pour parler aux autres",
    "Q12":13
}
]
}
